Session 3: Data Wrangling
…
.code60[

```r
parlgov_elec %>%
  filter(election_type == "parliament") %>% 
  group_by(country_name_short) %>%
  summarise(share_max = max(vote_share, na.rm = T), 
            party = party_name_english[1],
            election_date = election_date[1]
            ) %>%  # note the "collapsing" I mentioned earlier
  arrange(desc(share_max))
```

```
## # A tibble: 37 x 4
##    country_name_short share_max party                     election_date
##    <chr>                  <dbl> <chr>                     <date>       
##  1 CYP                     71.2 Democratic Party          1976-09-05   
##  2 LVA                     68.2 Popular Front of Latvia   1990-04-29   
##  3 ROU                     66.3 Democratic Party          1990-05-20   
##  4 MLT                     59.9 Malta Labour Party        1947-10-27   
##  5 JPN                     59   Japan Liberal Party       1946-04-10   
##  6 NZL                     58.7 New Zealand Liberal Party 1902-11-25   
##  7 CAN                     57   Liberal Party of Canada   1900-11-07   
##  8 CHE                     56.2 Radical Democratic Party  1902-10-26   
##  9 BEL                     56   Catholic Party            1900-05-27   
## 10 GBR                     55.0 Conservatives             1918-12-14   
## # ... with 27 more rows
```
…
---

# group_by()

.code70[

```r
parlgov_elec %>%
  filter(seats_total == max_seats) %>%
  select(country_name_short, election_date, max_seats) %>%
  distinct() # select distinct rows
```

```
## # A tibble: 309 x 3
##    country_name_short election_date max_seats
##    <chr>              <date>            <int>
##  1 AUS                2019-05-18          151
##  2 AUT                1920-10-17          183
##  3 AUT                1971-10-10          183
##  4 AUT                1975-10-05          183
##  5 AUT                1979-05-06          183
##  6 AUT                1983-04-24          183
##  7 AUT                1986-11-23          183
##  8 AUT                1990-10-07          183
##  9 AUT                1994-10-09          183
## 10 AUT                1995-12-17          183
## # ... with 299 more rows
```
…
